…
I think the data is not tidy. The columns represented the year,
locations that the readings were taken that could be collapsed to form
the regions which they are observations for.

``` r
Eagle_data |> 
  pivot_longer(cols = pacific:rocky.mtn,
               names_to = "region", 
               values_to = "value")
```

    # A tibble: 54 × 3
        year region    value
       <int> <chr>     <int>
     1  2006 pacific    1636
     2  2006 southwest    68
     3  2006 rocky.mtn   241
     4  2007 pacific    2474
     5  2007 southwest   148
     6  2007 rocky.mtn   277
     7  2008 pacific    3772
     8  2008 southwest   131
     9  2008 rocky.mtn   384
    10  2009 pacific    3179
    # ℹ 44 more rows
…
