…
# Question 3: adding columns

\#Create a data frame of average flight speeds, based on `air_time` and
`distance`. Make either a histogram or a density plot of the data. If
you like, you may break the data out (e.g. by airline, or some other
variable) in a way that you think makes sense.

``` r
flights <- flights |> mutate(avg_speed = distance / air_time, .before = 1)
flights |> mutate(speed = distance / air_time)
```

    # A tibble: 336,776 × 21
       avg_speed  year month   day dep_time sched_dep_time dep_delay arr_time
           <dbl> <int> <int> <int>    <int>          <int>     <dbl>    <int>
     1      6.17  2013     1     1      517            515         2      830
     2      6.24  2013     1     1      533            529         4      850
     3      6.81  2013     1     1      542            540         2      923
     4      8.61  2013     1     1      544            545        -1     1004
     5      6.57  2013     1     1      554            600        -6      812
     6      4.79  2013     1     1      554            558        -4      740
     7      6.74  2013     1     1      555            600        -5      913
     8      4.32  2013     1     1      557            600        -3      709
     9      6.74  2013     1     1      557            600        -3      838
    10      5.31  2013     1     1      558            600        -2      753
    # ℹ 336,766 more rows
    # ℹ 13 more variables: sched_arr_time <int>, arr_delay <dbl>, carrier <chr>,
    #   flight <int>, tailnum <chr>, origin <chr>, dest <chr>, air_time <dbl>,
    #   distance <dbl>, hour <dbl>, minute <dbl>, time_hour <dttm>, speed <dbl>
…
